{
  "W": "wall",
  "F": "flower",
  "D": "door",
  "E": "level",
  "L": "line",
  "R": "water",
  "G": "ghost",
  "B": "baba",
  "C": "cursor",
  "Z": "flag",


  "A": "and",
  "S": "stop",
  "H": "shut",
  "K": "sink",
  "Y": "you",
  "N": "not",
  "P": "push",
  "O": "open",
  "J": "win",
  "I": "is",

  "w": "wall",
  "f": "flower",
  "d": "door",
  "e": "level",
  "l": "line",
  "r": "water",
  "g": "ghost",
  "b": "baba",
  "c": "cursor",
  "z": "flag"
}


 f WADIS          wewwwww   w   
 wwwwIwwwwwwRIKwwwele       w  f
 w  wHwe   wwww  wwlwwwww   w f 
ww  wwwe   rr    wllw wGABIYw   
Cw        www    w          w   
Iw     w  eewwdwww ZIPAOwwwwww  
Nw        lw     w    www    w  
Pw        lw   e lle    w   Iw  
Aw       weele e w e    w   Jw  
Nw  CI  wwww   e w      www ww f
Ow      w  w     d    w w   w   
Aw      d  llw   w     lll  w   
Nw      w  lwwwwwwwwdwwwwl ww   
Yw    wwwz l w wEIE   w  l  w f 
wwwwwww G eleelw r   lll eeew   
f     w     w lw      w     w  f
    f wwwwwww ewwwwwwwwwwwwww   
 f                        f     